Build a Rolling Infraestructure — construct_rolling_infrastructure • snoop
…
    A tibble of the snoop_rolling class. Contains 3 columns:
.date, .analysis and .assessment.

    Examples

stocks <- tibble::tibble(
  time = as.Date('2009-01-01') + 0:99,
  X    = rnorm(100, 0, 1),
  Y    = rnorm(100, 0, 2),
  Z    = rnorm(100, 0, 4)
)

construct_rolling_infrastructure(stocks, .initial = 50)
#> # A tibble: 50 × 3
#>    .date      .analysis         .assessment     
#>    <date>     <list>            <list>          
#>  1 2009-02-20 <tibble [50 × 3]> <tibble [1 × 3]>
#>  2 2009-02-21 <tibble [50 × 3]> <tibble [1 × 3]>
#>  3 2009-02-22 <tibble [50 × 3]> <tibble [1 × 3]>
#>  4 2009-02-23 <tibble [50 × 3]> <tibble [1 × 3]>
#>  5 2009-02-24 <tibble [50 × 3]> <tibble [1 × 3]>
#>  6 2009-02-25 <tibble [50 × 3]> <tibble [1 × 3]>
#>  7 2009-02-26 <tibble [50 × 3]> <tibble [1 × 3]>
#>  8 2009-02-27 <tibble [50 × 3]> <tibble [1 × 3]>
#>  9 2009-02-28 <tibble [50 × 3]> <tibble [1 × 3]>
#> 10 2009-03-01 <tibble [50 × 3]> <tibble [1 × 3]>
#> # … with 40 more rows
…
