Portfolio Statistics — extract_statistics • snoop
…
roll <- construct_rolling_infrastructure(stocks, .initial = 50)

rebal <- construct_rebalance_infrastructure(roll)

# Mean Variance Strategy
mu_sigma <- function(.data) {
  list(mu = colMeans(.data), sigma = stats::cov(.data))
}

optimal <- rebalance_portfolio(rebal, mu_sigma, .strategy = "mean_variance")

extract_statistics(optimal)
#> # A tibble: 50 × 11
#>    .date      .analysis .assessment .optimization .weights  .return .volatility
#>    <date>     <list>    <list>      <list>        <list>      <dbl>       <dbl>
#>  1 2009-02-20 <tibble>  <tibble>    <named list>  <dbl [3]>  0.258        0.874
#>  2 2009-02-21 <tibble>  <tibble>    <named list>  <dbl [3]> -1.06         0.870
#>  3 2009-02-22 <tibble>  <tibble>    <named list>  <dbl [3]> -0.0257       0.860
#>  4 2009-02-23 <tibble>  <tibble>    <named list>  <dbl [3]>  0.836        0.848
#>  5 2009-02-24 <tibble>  <tibble>    <named list>  <dbl [3]>  0.676        0.854
#>  6 2009-02-25 <tibble>  <tibble>    <named list>  <dbl [3]>  1.07         0.858
#>  7 2009-02-26 <tibble>  <tibble>    <named list>  <dbl [3]>  0.216        0.867
#>  8 2009-02-27 <tibble>  <tibble>    <named list>  <dbl [3]> -0.928        0.868
#>  9 2009-02-28 <tibble>  <tibble>    <named list>  <dbl [3]> -0.664        0.873
#> 10 2009-03-01 <tibble>  <tibble>    <named list>  <dbl [3]>  0.587        0.879
#> # … with 40 more rows, and 4 more variables: .skewness <dbl>, .kurtosis <dbl>,
#> #   .value_at_risk <dbl>, .expected_shortfall <dbl>
…
